{
	"id": "9311f4cd-6df3-af17-5ac0-90874b475b3b",
	"name": "postman_collection",
	"description": "",
	"order": [],
	"folders": [
		{
			"name": "Criptografia",
			"description": "",
			"collectionId": "9311f4cd-6df3-af17-5ac0-90874b475b3b",
			"order": [
				"6a664fcf-e380-d8a2-778c-6cc61ad5a8df",
				"eb8a086b-3c8a-3d35-30e6-a744e70879bb"
			],
			"owner": "5125089",
			"folder": "e76609b2-eab0-9805-4c24-564031307330",
			"folders_order": [],
			"id": "8b78d7e4-71b8-c5b6-db9b-f858945cafbb"
		},
		{
			"name": "Criptografia",
			"description": "",
			"collectionId": "9311f4cd-6df3-af17-5ac0-90874b475b3b",
			"order": [
				"cb1630ee-c6a7-acc0-92c1-25c119a0c2f8",
				"bd9494f2-02c7-cb94-4b67-f2fbea112949"
			],
			"owner": "5125089",
			"folder": "41c31963-ff33-2d15-3054-a879a0d8ee2a",
			"folders_order": [],
			"id": "34497e1a-6355-1ce3-c08f-2d2c0361917b"
		},
		{
			"name": "Digito-Unico",
			"description": "",
			"collectionId": "9311f4cd-6df3-af17-5ac0-90874b475b3b",
			"order": [
				"15037ee0-de40-4af7-9f2d-634c48223a40",
				"171e3de3-7f89-0c8d-f0bb-c8bd863455a9",
				"a1c68f15-aa29-ec59-3e9c-d5992fb34738"
			],
			"owner": "5125089",
			"folder": "e76609b2-eab0-9805-4c24-564031307330",
			"folders_order": [],
			"id": "c6251602-e1e7-b2b1-fb99-bdd3d4ca818e"
		},
		{
			"name": "Digito-Unico",
			"description": "",
			"collectionId": "9311f4cd-6df3-af17-5ac0-90874b475b3b",
			"order": [
				"17f14ce6-c891-79ad-1cf0-a92a82b3920b",
				"f8b33a97-4044-856b-f086-847370d485c1",
				"d3cc75a2-8400-445a-8910-58d14c22c7a5"
			],
			"owner": "5125089",
			"folder": "41c31963-ff33-2d15-3054-a879a0d8ee2a",
			"folders_order": [],
			"id": "b8259d5a-7158-96a1-e06b-4c51963073f1"
		},
		{
			"name": "Heroku",
			"description": "",
			"collectionId": "9311f4cd-6df3-af17-5ac0-90874b475b3b",
			"order": [],
			"owner": "5125089",
			"folders_order": [
				"34497e1a-6355-1ce3-c08f-2d2c0361917b",
				"b8259d5a-7158-96a1-e06b-4c51963073f1",
				"7d84c3a9-9797-7d16-995e-d1c727fb0d8a"
			],
			"id": "41c31963-ff33-2d15-3054-a879a0d8ee2a"
		},
		{
			"name": "Local",
			"description": "",
			"collectionId": "9311f4cd-6df3-af17-5ac0-90874b475b3b",
			"order": [],
			"owner": "5125089",
			"folders_order": [
				"8b78d7e4-71b8-c5b6-db9b-f858945cafbb",
				"c6251602-e1e7-b2b1-fb99-bdd3d4ca818e",
				"bc890659-b31b-e864-9ec9-8c2bf6a014c0"
			],
			"id": "e76609b2-eab0-9805-4c24-564031307330"
		},
		{
			"name": "Usuario",
			"description": "",
			"collectionId": "9311f4cd-6df3-af17-5ac0-90874b475b3b",
			"order": [
				"f669e327-053f-b9cc-57ac-76dbfa4197c6",
				"04e2e20d-779d-a508-193a-d65a407991a1",
				"1593661c-20f4-ef82-b172-926696b0d5a2",
				"74a4edb9-1aa6-2cc2-d068-d08f7cb42edf",
				"4e0ba0dd-a75d-0e46-0c8f-7e0cd9783867"
			],
			"owner": "5125089",
			"folder": "e76609b2-eab0-9805-4c24-564031307330",
			"folders_order": [],
			"id": "bc890659-b31b-e864-9ec9-8c2bf6a014c0"
		},
		{
			"name": "Usuario",
			"description": "",
			"collectionId": "9311f4cd-6df3-af17-5ac0-90874b475b3b",
			"order": [
				"409b5a46-741e-a712-266c-a07659b165a5",
				"ba5e4b05-6c61-00ed-792d-825fc5cd9d41",
				"5e4bbc01-11ba-dbbc-c12f-005d7e12139f",
				"3ce37aa5-bbff-48ce-2bfc-a1c3507330da",
				"dd5156a4-26ea-b297-437d-b766811b4d63"
			],
			"owner": "5125089",
			"folder": "41c31963-ff33-2d15-3054-a879a0d8ee2a",
			"folders_order": [],
			"id": "7d84c3a9-9797-7d16-995e-d1c727fb0d8a"
		}
	],
	"folders_order": [
		"41c31963-ff33-2d15-3054-a879a0d8ee2a",
		"e76609b2-eab0-9805-4c24-564031307330"
	],
	"timestamp": 1595012008975,
	"owner": "5125089",
	"public": false,
	"requests": [
		{
			"id": "04e2e20d-779d-a508-193a-d65a407991a1",
			"headers": "",
			"headerData": [],
			"url": "localhost:9000/digitounico/v1/usuarios/buscar/1",
			"queryParams": [],
			"pathVariables": {},
			"pathVariableData": [],
			"preRequestScript": null,
			"method": "GET",
			"collectionId": "9311f4cd-6df3-af17-5ac0-90874b475b3b",
			"data": null,
			"dataMode": "params",
			"name": "Buscar Por Id",
			"description": "",
			"descriptionFormat": "html",
			"time": 1595012164456,
			"version": 2,
			"responses": [],
			"tests": null,
			"currentHelper": "normal",
			"helperAttributes": {},
			"folder": "bc890659-b31b-e864-9ec9-8c2bf6a014c0"
		},
		{
			"id": "15037ee0-de40-4af7-9f2d-634c48223a40",
			"headers": "Content-Type: application/json\n",
			"headerData": [
				{
					"key": "Content-Type",
					"value": "application/json",
					"description": "",
					"enabled": true
				}
			],
			"url": "localhost:9000/digitounico/v1/digitounicos/calcular",
			"queryParams": [],
			"pathVariables": {},
			"pathVariableData": [],
			"preRequestScript": null,
			"method": "POST",
			"collectionId": "9311f4cd-6df3-af17-5ac0-90874b475b3b",
			"data": [],
			"dataMode": "raw",
			"name": "Calcular",
			"description": "",
			"descriptionFormat": "html",
			"time": 1595012270015,
			"version": 2,
			"responses": [],
			"tests": null,
			"currentHelper": "normal",
			"helperAttributes": {},
			"folder": "c6251602-e1e7-b2b1-fb99-bdd3d4ca818e",
			"rawModeData": "{\n\t\"entradaCalculo\": \"9875\",\n\t\"numeroVezes\": \"7\"\n\t\n}"
		},
		{
			"id": "1593661c-20f4-ef82-b172-926696b0d5a2",
			"headers": "Content-Type: application/json\n",
			"headerData": [
				{
					"key": "Content-Type",
					"value": "application/json",
					"description": "",
					"enabled": true
				}
			],
			"url": "localhost:9000/digitounico/v1/usuarios/editar/1",
			"queryParams": [],
			"pathVariables": {},
			"pathVariableData": [],
			"preRequestScript": null,
			"method": "PUT",
			"collectionId": "9311f4cd-6df3-af17-5ac0-90874b475b3b",
			"data": [],
			"dataMode": "raw",
			"name": "Editar",
			"description": "",
			"descriptionFormat": "html",
			"time": 1595012195404,
			"version": 2,
			"responses": [],
			"tests": null,
			"currentHelper": "normal",
			"helperAttributes": {},
			"folder": "bc890659-b31b-e864-9ec9-8c2bf6a014c0",
			"rawModeData": "{\n    \"nome\": \"Joao da Silva\",\n    \"email\": \"joao123@teste.com\"\n}"
		},
		{
			"id": "171e3de3-7f89-0c8d-f0bb-c8bd863455a9",
			"headers": "",
			"headerData": [],
			"url": "localhost:9000/digitounico/v1/usuarios/buscarresultado/1",
			"queryParams": [],
			"pathVariables": {},
			"pathVariableData": [],
			"preRequestScript": null,
			"method": "GET",
			"collectionId": "9311f4cd-6df3-af17-5ac0-90874b475b3b",
			"data": null,
			"dataMode": "params",
			"name": "Buscar Resultados Por Usuario",
			"description": "",
			"descriptionFormat": "html",
			"time": 1595012313662,
			"version": 2,
			"responses": [],
			"tests": null,
			"currentHelper": "normal",
			"helperAttributes": {},
			"folder": "c6251602-e1e7-b2b1-fb99-bdd3d4ca818e"
		},
		{
			"id": "17f14ce6-c891-79ad-1cf0-a92a82b3920b",
			"headers": "Content-Type: application/json\n",
			"headerData": [
				{
					"key": "Content-Type",
					"value": "application/json",
					"description": "",
					"enabled": true
				}
			],
			"url": "desafio-banco-inter.herokuapp.com/digitounico/v1/digitounicos/calcular",
			"folder": "b8259d5a-7158-96a1-e06b-4c51963073f1",
			"queryParams": [],
			"preRequestScript": null,
			"pathVariables": {},
			"pathVariableData": [],
			"method": "POST",
			"data": [],
			"dataMode": "raw",
			"version": 2,
			"tests": null,
			"currentHelper": "normal",
			"helperAttributes": {},
			"time": 1595096686240,
			"name": "Calcular",
			"description": "",
			"collectionId": "9311f4cd-6df3-af17-5ac0-90874b475b3b",
			"responses": [],
			"rawModeData": "{\n\t\"entradaCalculo\": \"9875\",\n\t\"numeroVezes\": \"7\"\n\t\n}"
		},
		{
			"id": "3ce37aa5-bbff-48ce-2bfc-a1c3507330da",
			"headers": "",
			"headerData": [],
			"url": "desafio-banco-inter.herokuapp.com/digitounico/v1/usuarios/buscartodos",
			"folder": "7d84c3a9-9797-7d16-995e-d1c727fb0d8a",
			"queryParams": [],
			"preRequestScript": null,
			"pathVariables": {},
			"pathVariableData": [],
			"method": "GET",
			"data": null,
			"dataMode": "params",
			"version": 2,
			"tests": null,
			"currentHelper": "normal",
			"helperAttributes": {},
			"time": 1595096461582,
			"name": "Buscar Todos",
			"description": "",
			"collectionId": "9311f4cd-6df3-af17-5ac0-90874b475b3b",
			"responses": []
		},
		{
			"id": "409b5a46-741e-a712-266c-a07659b165a5",
			"headers": "Content-Type: application/json\n",
			"headerData": [
				{
					"key": "Content-Type",
					"value": "application/json",
					"description": "",
					"enabled": true
				}
			],
			"url": "desafio-banco-inter.herokuapp.com/digitounico/v1/usuarios/salvar",
			"folder": "7d84c3a9-9797-7d16-995e-d1c727fb0d8a",
			"queryParams": [],
			"preRequestScript": "",
			"pathVariables": {},
			"pathVariableData": [],
			"method": "POST",
			"data": [],
			"dataMode": "raw",
			"version": 2,
			"tests": "",
			"currentHelper": "normal",
			"helperAttributes": {},
			"time": 1595096176629,
			"name": "Salvar",
			"description": "",
			"collectionId": "9311f4cd-6df3-af17-5ac0-90874b475b3b",
			"responses": [],
			"rawModeData": "{\n  \"nome\": \"Joao da Silva\",\n  \"email\": \"joao@teste.com\"\n}"
		},
		{
			"id": "4e0ba0dd-a75d-0e46-0c8f-7e0cd9783867",
			"headers": "",
			"headerData": [],
			"url": "localhost:9000/digitounico/v1/usuarios/excluir/1",
			"queryParams": [],
			"pathVariables": {},
			"pathVariableData": [],
			"preRequestScript": null,
			"method": "DELETE",
			"collectionId": "9311f4cd-6df3-af17-5ac0-90874b475b3b",
			"data": null,
			"dataMode": "params",
			"name": "Deletar",
			"description": "",
			"descriptionFormat": "html",
			"time": 1595012236252,
			"version": 2,
			"responses": [],
			"tests": null,
			"currentHelper": "normal",
			"helperAttributes": {},
			"folder": "bc890659-b31b-e864-9ec9-8c2bf6a014c0"
		},
		{
			"id": "5e4bbc01-11ba-dbbc-c12f-005d7e12139f",
			"headers": "Content-Type: application/json\n",
			"headerData": [
				{
					"key": "Content-Type",
					"value": "application/json",
					"description": "",
					"enabled": true
				}
			],
			"url": "desafio-banco-inter.herokuapp.com/digitounico/v1/usuarios/editar/1",
			"folder": "7d84c3a9-9797-7d16-995e-d1c727fb0d8a",
			"queryParams": [],
			"preRequestScript": null,
			"pathVariables": {},
			"pathVariableData": [],
			"method": "PUT",
			"data": [],
			"dataMode": "raw",
			"version": 2,
			"tests": null,
			"currentHelper": "normal",
			"helperAttributes": {},
			"time": 1595096433471,
			"name": "Editar",
			"description": "",
			"collectionId": "9311f4cd-6df3-af17-5ac0-90874b475b3b",
			"responses": [],
			"rawModeData": "{\n    \"nome\": \"Joao da Silva\",\n    \"email\": \"joao123@teste.com\"\n}"
		},
		{
			"id": "6a664fcf-e380-d8a2-778c-6cc61ad5a8df",
			"headers": "",
			"headerData": [],
			"url": "localhost:9000/digitounico/v1/criptografias/gerar/chavepublica/1",
			"queryParams": [],
			"pathVariables": {},
			"pathVariableData": [],
			"preRequestScript": null,
			"method": "GET",
			"collectionId": "9311f4cd-6df3-af17-5ac0-90874b475b3b",
			"data": null,
			"dataMode": "params",
			"name": "Gerar Chave Publica",
			"description": "",
			"descriptionFormat": "html",
			"time": 1595012354956,
			"version": 2,
			"responses": [],
			"tests": null,
			"currentHelper": "normal",
			"helperAttributes": {},
			"folder": "8b78d7e4-71b8-c5b6-db9b-f858945cafbb"
		},
		{
			"id": "74a4edb9-1aa6-2cc2-d068-d08f7cb42edf",
			"headers": "",
			"headerData": [],
			"url": "localhost:9000/digitounico/v1/usuarios/buscartodos",
			"queryParams": [],
			"pathVariables": {},
			"pathVariableData": [],
			"preRequestScript": null,
			"method": "GET",
			"collectionId": "9311f4cd-6df3-af17-5ac0-90874b475b3b",
			"data": null,
			"dataMode": "params",
			"name": "Buscar Todos",
			"description": "",
			"descriptionFormat": "html",
			"time": 1595012224118,
			"version": 2,
			"responses": [],
			"tests": null,
			"currentHelper": "normal",
			"helperAttributes": {},
			"folder": "bc890659-b31b-e864-9ec9-8c2bf6a014c0"
		},
		{
			"id": "a1c68f15-aa29-ec59-3e9c-d5992fb34738",
			"headers": "",
			"headerData": [],
			"url": "localhost:9000/digitounico/v1/digitounicos/cache/buscartodos",
			"queryParams": [],
			"pathVariables": {},
			"pathVariableData": [],
			"preRequestScript": null,
			"method": "GET",
			"collectionId": "9311f4cd-6df3-af17-5ac0-90874b475b3b",
			"data": null,
			"dataMode": "params",
			"name": "Buscar Resultados em Cache",
			"description": "",
			"descriptionFormat": "html",
			"time": 1595012398917,
			"version": 2,
			"responses": [],
			"tests": null,
			"currentHelper": "normal",
			"helperAttributes": {},
			"folder": "c6251602-e1e7-b2b1-fb99-bdd3d4ca818e"
		},
		{
			"id": "ba5e4b05-6c61-00ed-792d-825fc5cd9d41",
			"headers": "",
			"headerData": [],
			"url": "desafio-banco-inter.herokuapp.com/digitounico/v1/usuarios/buscar/1",
			"folder": "7d84c3a9-9797-7d16-995e-d1c727fb0d8a",
			"queryParams": [],
			"preRequestScript": null,
			"pathVariables": {},
			"pathVariableData": [],
			"method": "GET",
			"data": null,
			"dataMode": "params",
			"version": 2,
			"tests": null,
			"currentHelper": "normal",
			"helperAttributes": {},
			"time": 1595096442021,
			"name": "Buscar Por Id",
			"description": "",
			"collectionId": "9311f4cd-6df3-af17-5ac0-90874b475b3b",
			"responses": []
		},
		{
			"id": "bd9494f2-02c7-cb94-4b67-f2fbea112949",
			"headers": "Content-Type: application/json\n",
			"headerData": [
				{
					"key": "Content-Type",
					"value": "application/json",
					"description": "",
					"enabled": true
				}
			],
			"url": "desafio-banco-inter.herokuapp.com/digitounico/v1/criptografias/descriptografar",
			"folder": "34497e1a-6355-1ce3-c08f-2d2c0361917b",
			"queryParams": [],
			"preRequestScript": null,
			"pathVariables": {},
			"pathVariableData": [],
			"method": "POST",
			"data": [],
			"dataMode": "raw",
			"version": 2,
			"tests": null,
			"currentHelper": "normal",
			"helperAttributes": {},
			"time": 1595096731909,
			"name": "Descriptografar",
			"description": "",
			"collectionId": "9311f4cd-6df3-af17-5ac0-90874b475b3b",
			"responses": [],
			"rawModeData": "{\n    \"chavePublica\": \"MIIBIjANBgkqhkiG9w0BAQEFAAOCAQ8AMIIBCgKCAQEAssz9S55f50HvXWXfCOp2RG3+GhszgH4cuQ7dtuRjJUttKXhjx9sQTgpGEINWnRHrGW7L7tq9fe3DO+gV9LGE4Q9D/dzwIlwZd0HahBo5vb9goYooysidN4TbJLdtlMNulwZRFvqWkCwYwNz9fw0BwlbPq4d2dht2LTyASAiiAX2TbYNWPNMTqFm8/ERzEiLgUSd4cKWzj7gBdrdOMhYmLnLdXVHZk8IK8xUz979jfc5XBIqfFOdU5Va8QIT2kF6uAfO3a0yFD0egVYu9bG9lQDNs55imzp4NvSJoXWZZUMEJ8Oyk6ODPrA1CiZYDaQY3TeqnLq+XMnB4yi2xoTDYFQIDAQAB\"\n}"
		},
		{
			"id": "cb1630ee-c6a7-acc0-92c1-25c119a0c2f8",
			"headers": "",
			"headerData": [],
			"url": "localhost:9000/digitounico/v1/criptografias/gerar/chavepublica/1",
			"queryParams": [],
			"pathVariables": {},
			"pathVariableData": [],
			"preRequestScript": null,
			"method": "GET",
			"collectionId": "9311f4cd-6df3-af17-5ac0-90874b475b3b",
			"data": null,
			"dataMode": "params",
			"name": "Gerar Chave Publica",
			"description": "",
			"descriptionFormat": "html",
			"time": 1595012354956,
			"version": 2,
			"responses": [],
			"tests": null,
			"currentHelper": "normal",
			"helperAttributes": {},
			"folder": "34497e1a-6355-1ce3-c08f-2d2c0361917b"
		},
		{
			"id": "d3cc75a2-8400-445a-8910-58d14c22c7a5",
			"headers": "",
			"headerData": [],
			"url": "desafio-banco-inter.herokuapp.com/digitounico/v1/digitounicos/cache/buscartodos",
			"folder": "b8259d5a-7158-96a1-e06b-4c51963073f1",
			"queryParams": [],
			"preRequestScript": null,
			"pathVariables": {},
			"pathVariableData": [],
			"method": "GET",
			"data": null,
			"dataMode": "params",
			"version": 2,
			"tests": null,
			"currentHelper": "normal",
			"helperAttributes": {},
			"time": 1595096628087,
			"name": "Buscar Resultados em Cache",
			"description": "",
			"collectionId": "9311f4cd-6df3-af17-5ac0-90874b475b3b",
			"responses": []
		},
		{
			"id": "dd5156a4-26ea-b297-437d-b766811b4d63",
			"headers": "",
			"headerData": [],
			"url": "desafio-banco-inter.herokuapp.com/digitounico/v1/usuarios/excluir/1",
			"folder": "7d84c3a9-9797-7d16-995e-d1c727fb0d8a",
			"queryParams": [],
			"preRequestScript": null,
			"pathVariables": {},
			"pathVariableData": [],
			"method": "DELETE",
			"data": null,
			"dataMode": "params",
			"version": 2,
			"tests": null,
			"currentHelper": "normal",
			"helperAttributes": {},
			"time": 1595096528413,
			"name": "Deletar",
			"description": "",
			"collectionId": "9311f4cd-6df3-af17-5ac0-90874b475b3b",
			"responses": []
		},
		{
			"id": "eb8a086b-3c8a-3d35-30e6-a744e70879bb",
			"headers": "Content-Type: application/json\n",
			"headerData": [
				{
					"key": "Content-Type",
					"value": "application/json",
					"description": "",
					"enabled": true
				}
			],
			"url": "localhost:9000/digitounico/v1/criptografias/descriptografar",
			"queryParams": [],
			"pathVariables": {},
			"pathVariableData": [],
			"preRequestScript": null,
			"method": "POST",
			"collectionId": "9311f4cd-6df3-af17-5ac0-90874b475b3b",
			"data": [],
			"dataMode": "raw",
			"name": "Descriptografar",
			"description": "",
			"descriptionFormat": "html",
			"time": 1595012368519,
			"version": 2,
			"responses": [],
			"tests": null,
			"currentHelper": "normal",
			"helperAttributes": {},
			"folder": "8b78d7e4-71b8-c5b6-db9b-f858945cafbb",
			"rawModeData": "{\n    \"chavePublica\": \"MIIBIjANBgkqhkiG9w0BAQEFAAOCAQ8AMIIBCgKCAQEAssz9S55f50HvXWXfCOp2RG3+GhszgH4cuQ7dtuRjJUttKXhjx9sQTgpGEINWnRHrGW7L7tq9fe3DO+gV9LGE4Q9D/dzwIlwZd0HahBo5vb9goYooysidN4TbJLdtlMNulwZRFvqWkCwYwNz9fw0BwlbPq4d2dht2LTyASAiiAX2TbYNWPNMTqFm8/ERzEiLgUSd4cKWzj7gBdrdOMhYmLnLdXVHZk8IK8xUz979jfc5XBIqfFOdU5Va8QIT2kF6uAfO3a0yFD0egVYu9bG9lQDNs55imzp4NvSJoXWZZUMEJ8Oyk6ODPrA1CiZYDaQY3TeqnLq+XMnB4yi2xoTDYFQIDAQAB\"\n}"
		},
		{
			"id": "f669e327-053f-b9cc-57ac-76dbfa4197c6",
			"headers": "Content-Type: application/json\n",
			"headerData": [
				{
					"key": "Content-Type",
					"value": "application/json",
					"description": "",
					"enabled": true
				}
			],
			"url": "localhost:9000/digitounico/v1/usuarios/salvar",
			"queryParams": [],
			"pathVariables": {},
			"pathVariableData": [],
			"preRequestScript": "",
			"method": "POST",
			"collectionId": "9311f4cd-6df3-af17-5ac0-90874b475b3b",
			"data": [],
			"dataMode": "raw",
			"name": "Salvar",
			"description": "",
			"descriptionFormat": "html",
			"time": 1595012134560,
			"version": 2,
			"responses": [],
			"tests": "",
			"currentHelper": "normal",
			"helperAttributes": {},
			"folder": "bc890659-b31b-e864-9ec9-8c2bf6a014c0",
			"rawModeData": "{\n  \"nome\": \"Joao da Silva\",\n  \"email\": \"joao@teste.com\"\n}"
		},
		{
			"id": "f8b33a97-4044-856b-f086-847370d485c1",
			"headers": "",
			"headerData": [],
			"url": "desafio-banco-inter.herokuapp.com/digitounico/v1/usuarios/buscarresultado/1",
			"folder": "b8259d5a-7158-96a1-e06b-4c51963073f1",
			"queryParams": [],
			"preRequestScript": null,
			"pathVariables": {},
			"pathVariableData": [],
			"method": "GET",
			"data": null,
			"dataMode": "params",
			"version": 2,
			"tests": null,
			"currentHelper": "normal",
			"helperAttributes": {},
			"time": 1595096551872,
			"name": "Buscar Resultados Por Usuario",
			"description": "",
			"collectionId": "9311f4cd-6df3-af17-5ac0-90874b475b3b",
			"responses": []
		}
	]
}